<svg width="27" height="26" viewBox="0 0 27 26" fill="none" xmlns="http://www.w3.org/2000/svg">
<path d="M10.0977 9.09912L17.591 16.5925" stroke="#696969" stroke-linecap="round" stroke-linejoin="round"/>
<path d="M10.0977 16.5925L17.591 9.09916" stroke="#696969" stroke-linecap="round" stroke-linejoin="round"/>
</svg>
