<svg width="15" height="15" viewBox="0 0 15 15" fill="none" xmlns="http://www.w3.org/2000/svg">
<path d="M1 7.15789L14 1L7.84211 14L6.47368 8.52632L1 7.15789Z" stroke="#636F75" stroke-linecap="round" stroke-linejoin="round"/>
</svg>
