<svg width="25" height="25" viewBox="0 0 25 25" fill="none" xmlns="http://www.w3.org/2000/svg">
<path d="M24.633 7.39819L21.508 4.27319C21.4261 4.19125 21.3217 4.13545 21.208 4.11285C21.0944 4.09024 20.9766 4.10184 20.8695 4.14619C20.7624 4.19054 20.6709 4.26563 20.6065 4.36198C20.5422 4.45834 20.5078 4.57162 20.5078 4.6875V5.66406H19.3359V2.34375C19.3353 1.77414 19.1087 1.22805 18.7059 0.825275C18.3032 0.422502 17.7571 0.195946 17.1875 0.195312H7.81247C7.24286 0.195946 6.69677 0.422502 6.294 0.825275C5.89122 1.22805 5.66467 1.77414 5.66403 2.34375V15.0391H4.49216V14.0625C4.49215 13.9466 4.45779 13.8333 4.3934 13.737C4.32902 13.6406 4.23751 13.5655 4.13045 13.5212C4.02338 13.4768 3.90558 13.4652 3.79192 13.4878C3.67826 13.5105 3.57386 13.5663 3.49192 13.6482L0.366916 16.7732C0.25704 16.8831 0.195312 17.0321 0.195312 17.1875C0.195312 17.3429 0.25704 17.4919 0.366916 17.6018L3.49192 20.7268C3.83986 21.0973 4.50852 20.8184 4.49216 20.3125V19.3359H5.66403V22.6562C5.66467 23.2259 5.89122 23.772 6.294 24.1747C6.69677 24.5775 7.24286 24.8041 7.81247 24.8047H17.1875C17.7571 24.8041 18.3032 24.5775 18.7059 24.1747C19.1087 23.772 19.3353 23.2259 19.3359 22.6562V9.96094H20.5078V10.9375C20.4915 11.4435 21.1601 11.7222 21.508 11.3518L24.633 8.22681C24.7429 8.11692 24.8046 7.96789 24.8046 7.8125C24.8046 7.65711 24.7429 7.50808 24.633 7.39819V7.39819ZM7.81247 1.36719H17.1875C17.4464 1.36748 17.6946 1.47047 17.8777 1.65354C18.0608 1.83662 18.1637 2.08484 18.164 2.34375V3.32031H6.83591V2.34375C6.83621 2.08484 6.93919 1.83662 7.12227 1.65354C7.30534 1.47047 7.55356 1.36748 7.81247 1.36719V1.36719ZM17.1875 23.6328H7.81247C7.55356 23.6325 7.30534 23.5295 7.12227 23.3465C6.93919 23.1634 6.83621 22.9152 6.83591 22.6562V21.6797H18.164V22.6562C18.1637 22.9152 18.0608 23.1634 17.8777 23.3465C17.6946 23.5295 17.4464 23.6325 17.1875 23.6328V23.6328ZM21.6797 9.5229V9.375C21.6797 9.2196 21.6179 9.07056 21.508 8.96068C21.3982 8.8508 21.2491 8.78906 21.0937 8.78906H16.4062C16.2508 8.78906 16.1018 8.8508 15.9919 8.96068C15.882 9.07056 15.8203 9.2196 15.8203 9.375C15.8203 9.5304 15.882 9.67944 15.9919 9.78932C16.1018 9.8992 16.2508 9.96094 16.4062 9.96094H18.164V20.5078H6.83591V19.3359H8.59372C8.74912 19.3359 8.89816 19.2742 9.00804 19.1643C9.11793 19.0544 9.17966 18.9054 9.17966 18.75C9.17966 18.5946 9.11793 18.4456 9.00804 18.3357C8.89816 18.2258 8.74912 18.1641 8.59372 18.1641H3.90622C3.75082 18.1641 3.60179 18.2258 3.4919 18.3357C3.38202 18.4456 3.32028 18.5946 3.32028 18.75V18.8979L1.60988 17.1875L3.32028 15.4771V15.625C3.32028 15.7804 3.38202 15.9294 3.4919 16.0393C3.60179 16.1492 3.75082 16.2109 3.90622 16.2109H8.59372C8.74912 16.2109 8.89816 16.1492 9.00804 16.0393C9.11793 15.9294 9.17966 15.7804 9.17966 15.625C9.17966 15.4696 9.11793 15.3206 9.00804 15.2107C8.89816 15.1008 8.74912 15.0391 8.59372 15.0391H6.83591V4.49219H18.164V5.66406H16.4062C16.2508 5.66406 16.1018 5.72579 15.9919 5.83568C15.882 5.94556 15.8203 6.0946 15.8203 6.25C15.8203 6.4054 15.882 6.55444 15.9919 6.66432C16.1018 6.7742 16.2508 6.83594 16.4062 6.83594H21.0937C21.2491 6.83594 21.3982 6.7742 21.508 6.66432C21.6179 6.55444 21.6797 6.4054 21.6797 6.25V6.1021L23.3901 7.8125L21.6797 9.5229Z" fill="#FBB03B"/>
<path d="M11.7188 9.96094H13.6719C13.8272 9.96111 13.9762 10.0229 14.086 10.1327C14.1959 10.2426 14.2576 10.3915 14.2578 10.5469C14.2578 10.7023 14.3195 10.8513 14.4294 10.9612C14.5393 11.0711 14.6883 11.1328 14.8438 11.1328C14.9992 11.1328 15.1482 11.0711 15.2581 10.9612C15.368 10.8513 15.4297 10.7023 15.4297 10.5469C15.4292 10.0808 15.2438 9.63403 14.9143 9.30448C14.5847 8.97494 14.1379 8.78958 13.6719 8.78906H13.0859V7.8125C13.0859 7.6571 13.0242 7.50806 12.9143 7.39818C12.8044 7.2883 12.6554 7.22656 12.5 7.22656C12.3446 7.22656 12.1956 7.2883 12.0857 7.39818C11.9758 7.50806 11.9141 7.6571 11.9141 7.8125V8.78906H11.7188C11.1489 8.78906 10.6025 9.01541 10.1996 9.41833C9.79666 9.82124 9.57031 10.3677 9.57031 10.9375C9.57031 11.5073 9.79666 12.0538 10.1996 12.4567C10.6025 12.8596 11.1489 13.0859 11.7188 13.0859H13.2812C13.5403 13.0859 13.7886 13.1888 13.9718 13.372C14.1549 13.5551 14.2578 13.8035 14.2578 14.0625C14.2578 14.3215 14.1549 14.5699 13.9718 14.753C13.7886 14.9362 13.5403 15.0391 13.2812 15.0391H11.3281C11.1728 15.0389 11.0238 14.9771 10.914 14.8673C10.8041 14.7574 10.7424 14.6085 10.7422 14.4531C10.7422 14.2977 10.6805 14.1487 10.5706 14.0388C10.4607 13.9289 10.3117 13.8672 10.1562 13.8672C10.0008 13.8672 9.85181 13.9289 9.74193 14.0388C9.63205 14.1487 9.57031 14.2977 9.57031 14.4531C9.57083 14.9192 9.75619 15.366 10.0857 15.6955C10.4153 16.0251 10.8621 16.2104 11.3281 16.2109H11.9141V17.1875C11.9141 17.3429 11.9758 17.4919 12.0857 17.6018C12.1956 17.7117 12.3446 17.7734 12.5 17.7734C12.6554 17.7734 12.8044 17.7117 12.9143 17.6018C13.0242 17.4919 13.0859 17.3429 13.0859 17.1875V16.2109H13.2812C13.8511 16.2109 14.3975 15.9846 14.8004 15.5817C15.2033 15.1788 15.4297 14.6323 15.4297 14.0625C15.4297 13.4927 15.2033 12.9462 14.8004 12.5433C14.3975 12.1404 13.8511 11.9141 13.2812 11.9141H11.7188C11.4597 11.9141 11.2114 11.8112 11.0282 11.628C10.8451 11.4449 10.7422 11.1965 10.7422 10.9375C10.7422 10.6785 10.8451 10.4301 11.0282 10.247C11.2114 10.0638 11.4597 9.96094 11.7188 9.96094V9.96094Z" fill="#FBB03B"/>
</svg>
