<svg width="102" height="103" viewBox="0 0 102 103" fill="none" xmlns="http://www.w3.org/2000/svg">
<g clip-path="url(#clip0_238_8868)">
<path d="M52.5672 102.674C50.425 102.183 48.2828 101.039 46.3054 100.058C44.328 99.0767 42.3506 98.0957 40.538 97.6052C38.5606 97.1148 36.4184 97.2782 34.2762 97.2782C31.9692 97.2782 29.6623 97.4417 27.5201 96.9513C26.3666 96.6243 25.3779 96.2973 24.554 95.8068C21.5879 94.0084 19.94 90.902 18.457 87.7956C17.4683 85.8337 16.4796 84.0353 15.3261 82.5638C14.0078 81.0924 12.36 79.9479 10.5474 78.8035C7.74608 76.8416 4.77998 74.8796 3.46171 71.7733C2.14344 68.6669 2.63779 65.2335 3.29693 61.8002C3.62649 59.6747 3.95606 57.5493 3.79128 55.5874C3.62649 53.789 2.96736 51.827 2.14344 49.8651C0.989958 46.5953 -0.328309 43.3254 0.495608 39.892C1.31953 36.4587 3.79128 34.0063 6.42781 31.5539C7.91086 30.0824 9.39391 28.611 10.3826 27.1395C11.3713 25.5046 12.0304 23.5427 12.5248 21.4173C13.5135 18.1474 14.5022 14.714 17.1387 12.5886C19.7753 10.2997 23.2357 9.80922 26.6962 9.31874C28.8383 8.99175 30.9805 8.66476 32.6284 8.01079C34.2762 7.35681 35.924 6.04887 37.7366 4.74092C40.0436 2.45201 42.8449 0.326593 46.3054 -0.000394002C47.2941 -0.163888 48.2828 -0.000393994 49.4363 0.1631C51.5784 0.65358 53.7206 1.79803 55.698 2.779C57.6754 3.75996 59.6528 4.74092 61.4654 5.2314C63.2781 5.72188 65.585 5.55839 67.7272 5.55839C70.0342 5.55839 72.3411 5.39489 74.4833 5.88537C75.6368 6.21236 76.6255 6.53935 77.4494 7.02983C80.4155 8.82826 82.0634 11.9346 83.5464 15.041C84.5351 17.0029 85.5238 18.8014 86.6773 20.2728C87.9956 21.7442 89.6434 22.8887 91.456 24.0332C94.2573 25.9951 97.2234 27.957 98.5417 31.0634C99.86 34.1698 99.3656 37.6031 98.7065 41.0365C98.3769 43.1619 98.0473 45.2873 98.2121 47.2492C98.3769 49.0477 99.036 51.0096 99.86 52.9715C101.013 56.2414 102.332 59.5112 101.508 62.9446C100.684 66.378 98.2121 68.8304 95.5756 71.2828C94.0926 72.7542 92.6095 74.2257 91.6208 75.6971C90.6321 77.332 89.973 79.294 89.4786 81.4194C88.4899 84.6892 87.5012 88.1226 84.8647 90.248C82.2281 92.5369 78.7677 93.0274 75.3073 93.5179C73.1651 93.8449 71.0229 94.1719 69.375 94.8258C67.7272 95.4798 66.0794 96.7878 64.2668 98.0957C61.4654 100.221 58.6641 102.347 55.2037 102.674C54.7093 103.164 53.5559 103.001 52.5672 102.674Z" fill="url(#paint0_radial_238_8868)"/>
<path d="M99.9171 62.5097C98.7636 67.578 92.8314 70.6844 90.3596 74.9352C87.7231 79.3495 87.7231 85.8893 83.9331 89.1591C80.1431 92.429 73.5517 91.6115 68.773 93.5735C64.1591 95.5354 60.2043 100.931 55.096 101.421C50.1525 101.912 45.3738 97.3338 40.2655 96.1894C35.1572 95.0449 28.8954 97.0068 24.6111 94.5544C20.1619 91.9385 19.0084 85.3988 15.7128 81.6384C12.4171 77.8781 5.99053 75.7527 4.01313 71.1749C2.03573 66.4335 4.83705 60.3843 4.50748 55.316C4.01313 50.4112 0.0583306 45.0159 1.21181 39.9476C2.3653 34.8793 8.2975 31.7729 10.7692 27.5221C13.4058 23.1078 13.4058 16.568 17.1958 13.2982C20.9858 10.0283 27.5772 10.8457 32.3559 8.88383C36.9698 6.9219 40.9246 1.52662 46.0329 1.03614C50.9764 0.545658 55.7551 5.12348 60.8634 6.26793C65.9717 7.41238 72.2335 5.45046 76.5178 7.90287C80.967 10.5188 82.1205 17.0585 85.4161 20.8189C88.7118 24.5792 95.1383 26.7046 97.1157 31.2824C99.0931 35.8603 96.2918 41.9095 96.6214 46.9778C97.1157 52.0461 101.071 57.4414 99.9171 62.5097Z" fill="url(#paint1_linear_238_8868)"/>
<path d="M53.5551 98.2593C51.9072 97.9323 50.2594 96.9513 48.4468 96.1338C46.3046 94.9894 43.9977 93.8449 41.5259 93.3544C39.0541 92.864 36.4176 92.864 33.9459 92.864C31.8037 92.864 29.8263 93.0275 28.3432 92.537C27.6841 92.3735 27.1897 92.21 26.6954 91.883C24.8828 90.7386 23.7293 88.2861 22.411 85.8337C21.4223 83.7083 20.2688 81.5829 18.621 79.621C16.9732 77.8226 14.9958 76.3511 13.0184 75.0432C10.5466 73.4082 8.40444 71.9368 7.58052 69.9749C6.59182 68.1764 7.08617 65.3971 7.58052 62.6177C7.91009 60.1653 8.40444 57.7129 8.23966 55.2605C8.07487 52.8081 7.25096 50.6826 6.42704 48.3937C5.43834 45.6143 4.44964 42.9985 4.94399 41.0365C5.43834 38.9111 7.41574 36.9492 9.55792 34.9873C11.2058 33.3523 13.0184 31.7174 14.1719 29.592C15.4901 27.4666 16.1493 25.0142 16.8084 22.7253C17.6323 19.9459 18.4562 17.33 19.9393 16.022C21.4223 14.7141 24.0589 14.3871 27.025 13.8966C29.3319 13.5696 31.8037 13.2426 34.1106 12.2617C36.4176 11.2807 38.395 9.80927 40.2076 8.33782C42.5146 6.5394 44.6568 4.90446 46.799 4.74097C47.2933 4.74097 47.9524 4.74097 48.4468 4.90446C50.0946 5.23145 51.7425 6.21241 53.5551 7.02988C55.6973 8.17433 58.0042 9.31879 60.476 9.80927C62.9477 10.2997 65.5843 10.2997 68.056 10.2997C70.1982 10.2997 72.1756 10.1363 73.6587 10.6267C74.3178 10.7902 74.8121 10.9537 75.3065 11.2807C77.1191 12.4252 78.2726 14.8776 79.5909 17.33C80.5796 19.4554 81.733 21.5808 83.3809 23.5427C85.0287 25.3412 87.0061 26.8126 88.9835 28.1205C91.4553 29.7555 93.5974 31.2269 94.4214 33.1888C95.2453 34.9873 94.7509 37.7667 94.2566 40.546C93.927 42.9984 93.4327 45.4509 93.5974 47.9033C93.7622 50.3557 94.5861 52.4811 95.4101 54.77C96.3988 57.5494 97.3875 60.1653 96.8931 62.1272C96.3988 64.2526 94.4214 66.2145 92.2792 68.1764C90.6313 69.8114 88.8187 71.4463 87.6652 73.5717C86.347 75.6972 85.6878 78.1496 85.0287 80.4385C84.2048 83.2178 83.3809 85.8337 81.8978 87.1417C80.4148 88.4496 77.6135 88.9401 74.8121 89.2671C72.5052 89.5941 70.0334 89.9211 67.7265 90.902C65.4195 91.883 63.4421 93.3544 61.6295 94.8259C59.3225 96.6243 57.1803 98.2593 55.0381 98.4228C54.7086 98.4228 54.2142 98.4227 53.5551 98.2593ZM41.8555 91.0655C44.6568 91.7195 47.1285 93.0275 49.2707 94.1719C50.9185 94.9894 52.5664 95.9703 53.8847 96.1338C54.2142 96.2973 54.7086 96.2973 54.8734 96.2973C56.3564 96.1338 58.3338 94.6624 60.3112 93.191C62.2886 91.7195 64.4308 90.0846 66.9025 88.9401C69.3743 87.7957 72.0108 87.4687 74.6474 87.1417C77.1191 86.8147 79.5909 86.3242 80.7443 85.5068C81.733 84.5258 82.557 82.2369 83.2161 79.7845C83.8752 77.3321 84.6991 74.8797 86.1822 72.4273C87.5005 70.1384 89.4779 68.3399 91.1257 66.5415C92.9383 64.7431 94.7509 62.9447 95.0805 61.4732C95.4101 60.0018 94.5861 57.7129 93.7622 55.2605C92.9383 52.9716 92.1144 50.5191 91.7848 47.9033C91.62 45.1239 91.9496 42.508 92.444 40.0556C92.7735 37.6032 93.2679 35.1508 92.7735 33.8428C92.2792 32.5349 90.137 31.0634 88.1596 29.7555C86.0174 28.284 83.8752 26.8126 82.0626 24.8507C80.25 22.8887 79.0965 20.4363 77.943 18.3109C76.7895 16.1855 75.6361 13.8966 74.4826 13.0791C74.153 12.9156 73.9882 12.7521 73.4939 12.7521C72.1756 12.4252 70.363 12.4252 68.3856 12.5887C65.9138 12.5887 63.1125 12.7521 60.3112 12.0982C57.5099 11.4442 55.0381 10.1363 52.896 8.9918C51.2481 8.17433 49.6003 7.19337 48.282 7.02988C47.9524 6.86638 47.4581 6.86638 47.2933 6.86638C45.8103 7.02988 43.8329 8.50132 41.8555 9.97276C39.8781 11.4442 37.7359 13.0791 35.2641 14.2236C32.7924 15.368 30.1558 15.695 27.5193 16.022C25.0476 16.349 22.5758 16.8395 21.4223 17.657C20.4336 18.6379 19.6097 20.9268 18.9506 23.3792C18.2914 25.8316 17.4675 28.284 15.9845 30.7364C14.6662 33.0253 12.6888 34.8238 11.041 36.6222C9.22836 38.4206 7.41574 40.2191 7.08617 41.6905C6.59182 42.9985 7.41574 45.2874 8.23966 47.7398C9.06357 50.0287 9.88749 52.4811 10.2171 55.097C10.3818 57.8764 10.0523 60.4923 9.55792 62.9447C9.22836 65.3971 8.73401 67.8495 9.22836 69.1574C9.72271 70.4654 11.8649 71.9368 13.8423 73.2447C15.9845 74.7162 18.1267 76.1876 19.9393 78.1496C21.7519 80.1115 22.9054 82.5639 24.0589 84.6893C25.2123 86.8147 26.3658 89.1036 27.5193 89.9211C27.8489 90.0846 28.0137 90.2481 28.508 90.2481C29.8263 90.5751 31.6389 90.5751 33.6163 90.4116C36.2528 90.5751 39.0541 90.4116 41.8555 91.0655Z" fill="url(#paint2_radial_238_8868)"/>
</g>
<defs>
<radialGradient id="paint0_radial_238_8868" cx="0" cy="0" r="1" gradientUnits="userSpaceOnUse" gradientTransform="translate(61.0008 -7.75939) rotate(12.7847) scale(117.29 116.366)">
<stop stop-color="#F26A00"/>
<stop offset="0.223958" stop-color="#FFE327"/>
<stop offset="1" stop-color="#FFFE4B"/>
</radialGradient>
<linearGradient id="paint1_linear_238_8868" x1="1.00195" y1="51.2302" x2="100.127" y2="51.2302" gradientUnits="userSpaceOnUse">
<stop offset="0.140625" stop-color="#FBB03B"/>
<stop offset="1" stop-color="#C07A1F"/>
</linearGradient>
<radialGradient id="paint2_radial_238_8868" cx="0" cy="0" r="1" gradientUnits="userSpaceOnUse" gradientTransform="translate(60.0003 -2.25101) rotate(12.7959) scale(106.534 105.782)">
<stop stop-color="#FFFE4B"/>
<stop offset="0.5" stop-color="#FFE327"/>
<stop offset="1" stop-color="#F26A00"/>
</radialGradient>
<clipPath id="clip0_238_8868">
<rect width="102.001" height="103.001" fill="white" transform="translate(0 -0.000488281)"/>
</clipPath>
</defs>
</svg>
